dit   1D HORIZONTAL INFILTRATION BENCHMARK PROBLEM
  FILES TO USE:  ASCII, BINARY, SUMMARY, RESTART OUT, RESTART IN
     T    T    T    F    F
  MODEL TYPE AND NUMBER OF GRID BLOCKS IN X, Y, AND Z
     1   41   1    1
  TSTART,   TMAX,      MAXSTEPS, YRSEC, SECYR 3.15569300000000E+07   3.16887700000000E-08
   0.0   3.1536+11  20000  3.153600E+07   3.170979198376460E-08
  DT_INIT,  DT_MIN,   DT_MAX,   DT_INCR, IAUTODT, TSWITCH
   8.6400E+00   8.6400E-04   1.73448+09   1.2500E+00  1     1.0000E-02
  TIME-STEP CHANGES: NUMBER OF CHANGES, TIME OF CHANGE, DELT USED
   0
  IPRTYPEASC IPRTYPEBIN IPRTYPERST UNITSI UNITSO
     2    2    0    'SI'     'SI'
  ASCII PRINTOUT CONTROLLED BY USER SPECIFIED TIMES
     27
  USER REQUESTED PRINTOUT TIMES
    0.000000E+00
    3.153600E+07
    6.307200E+07
    9.460800E+07
    1.261440E+08
    1.576800E+08
    1.892160E+08
    2.207520E+08
    2.522880E+08
    2.838240E+08
    3.153600E+08
    6.307200E+08
    9.460800E+08
    1.261440E+09
    1.576800E+09
    1.892160E+09
    2.207520E+09
    2.522880E+09
    2.838240E+09
    3.153600E+09
    1.103760E+10
    3.153600E+10
    9.460800E+10
    1.576800E+11
    2.207520E+11
    2.838240E+11
    3.153600E+11
 BINARY PRINTOUT CONTROLLED BY USER SPECIFIED TIMES
    27
  USERQUESTED PRINTOUT TIMES
    0.000000E+00
    3.153600E+07
    6.307200E+07
    9.460800E+07
    1.261440E+08
    1.576800E+08
    1.892160E+08
    2.207520E+08
    2.522880E+08
    2.838240E+08
    3.153600E+08
    6.307200E+08
    9.460800E+08
    1.261440E+09
    1.576800E+09
    1.892160E+09
    2.207520E+09
    2.522880E+09
    2.838240E+09
    3.153600E+09
    1.103760E+10
    3.153600E+10
    9.460800E+10
    1.576800E+11
    2.207520E+11
    2.838240E+11
    3.153600E+11
  ASCII PRINT FLAGS
   1 1 0 0 0  1 0 0 1 1  1 1 1 1 1  1 1 1 0 0  0 0 0 0 0
   0 0 0 0 0  0 0 0 0 0  0 0 0 0 0  0 0 0 0 0  0 0 0 0 0
   0 0 0 0 0  0 0 0 0 0  0 0 0 0 0  0 0 0 0 0  0 0 0 0 0
   0 0 0 0 0  0 0 0 0 0  0 0 0 0 0  0 0 0 0 0  0 0 0 0 0
   0 0 0 0 0  0 0 0 0 0  0 0 0 0 0
   0 0 0 0 0  0
   0 0
   0 0
   0 0
  BINARY PRINT FLAGS
  1 1 0 0 0  1 0 0 1 1  1 1 1 1 1  1 1 1 0 0  0 0 0 0 0
  0 0 0 0 0  0 0 0 0 0  0 0 0 0 0  0 0 0 0 0  0 0 0 0 0
  0 0 0 0 0  0 0 0 0 0  0 0 0 0 0  0 0 0 0 0  0 0 0 0 0
  0 0 0 0 0  0 0 0 0 0  0 0 0 0 0  0 0 0 0 0  0 0 0 0 0
  0 0 0 0 0  0 0 
  HISTORY VARIABLES
  0
  MONITOR PARAMETER VALUES AT 1 GRIDBLOCK
  T
  NUMBER OF MONITOR BLOCKS
     1
  MONITOR BLOCK (I,J,K)
     2    1    1
  GRID DATA FLAGS: IDXFLAG, IDYFLAG, IDZFLAG, IDEPTHFLAG
     1    0    0   0
  GRID DATA CARDS: GRID BLOCK DX'S
     0.000001  40*0.005  
  GRID DATA CARDS: GRID BLOCK DY'S
     1.0
  GRID DATA CARDS: GRID BLOCK DZ'S
     1.0
  GRID DATA CARDS: IORG, JORG, KORG, DEPTH, THETAX, THETAY, THETAZ
     1    1    1 0.000000E+00 9.000000E+01 0.000000E+00 0.000000E+00
  WELL DATA
   0
  DIRICHLET CONDITIONS
   T    1
   1  1  1  T  T  109525. 0.99999 
  GRID BLOCK BRINE PRESSURE INITIAL CONDITIONS
   109525.  40*1.01325E+05 
  GRID BLOCK BRINE SATURATION INITIAL CONDITIONS
  0.99999   40*0.44444444
  GRID BLOCK FE CONCENTRATION INITIAL CONDITIONS
  41*0.0
  GRID BLOCK CH2O CONCENTRATION INITIAL CONDITIONS
  41*0.0
  GRID BLOCK MGO CONCENTRATION INITIAL CONDITIONS
  41*0.0
  DSATLIM, DPRESLIM, SATLIMIT
    1.0000E-01  -1.0000E+07   1.0000E-08
  SATNORM, PRESNORM: NOMINAL CHANGE DEPENDENT VARIABLE
    6.0000E-01   1.0000E+06
  DDEPMAX(1), DDEPMAX(2)
    2.00E-02    1.E7
  CONVERGENCE TEST FLAG:  0=OR/1=AND
    1
  EPS_SAT, EPS_PRES:  NORMAL CONVERGENCE CRITERIA
    3.0000E+00   1.0000E-03
  EPS_SAT, EPS_PRES:  LOOSER CONVERGENCE CRITERIA
    3.0000E+00   1.0000E-03
  FTOL_SAT, FTOL_PRES:  NORMAL RESIDUALS TOLERANCE
    1.0000E-02    1.0000E-02
  FTOL_SAT, FTOL_PRES:  LOOSER RESIDUALS TOLERANCE
    1.0000E-02    1.0000E-02
  EPSGAS:  RXN PATH TOLS
    4*1.E-4
  SOLVER
    LU
  ITMAX, IRESETMAX, IJACINT, SCALING, P_SCALE, LVARSWTCH
    8      40        1        T        1.E7     F
  IUPRPFLAG, IUPMFFLAG, DT_REDU, ITRAVE, IMFAVE
    9          9    5.0000E-01   1       0
  IJACSWITCH, IJACMIN, IJACRESET, IUPRPLOOSE, IUPMFLOOSE
    41          1        5         9          9
  DHSAT_REL, DHPRES_REL: REL. CHANGE FOR JACOBIAN ELEMENT CALCS
    1.0000E-08   1.0000E-08
  DHSAT_MIN, DHPRES_MIN: MIN. CHANGE ALLOWED FOR JACOBIAN CALCS
    1.0000E-10   1.0000E-02
  NUMBER OF TIMES FOR SPECIFYING MATERIAL MAP
  1
  START TIME FOR MAP 1
  0.0
  MATERIAL TYPE GRID MAP
  41*1
   #     NAME
   1     WASTE
  NWST
    0
  NDRZ
    0
  NMATRESET
    0
  MAT_BOREHOLE
    1
  RESET TIME,  ICWASTE
   0.0           0
  POWASTEIC
   0.0
  SOWASTEIC
   0.0
  PRESDRZ
   0.0
  NBORERESET
   0
   #    LAMBDA      SOR      SGR
   1  7.0000E-01  2.0000E-01   1.0000E-05
   #    SBMIN  POMIN  PCMAX  PCT_A   PCT_EXP    KRP KPC  KPT
   1  1.00000E+00   1.013250E+05 1.000E+08   8.30000E+04    0.000E+00  4   2   0 
   #  PERMX      PERMY      PERMZ    POROSITY   COMPRES
   1 1.E-22   1.E-22   1.E-22    0.06      0.0
  TOL AND SOCEFFMIN FOR PERMEABILITY MODELS 11 & 12
  1.000000E-02 1.000000E-03
  NMATSP, FOR SMOOTH PERMEABILITY TRANSITION MODEL
  0
  FRACTURE MODEL
   F
  KLINKENBERG EFFECT
   F
  GRAVITY CONSTANT (GSTD) AND GAS CONSTANT (R)
   9.80665E+00  8.31451E+00
  REFERENCE TEMPERATURE AND PRESSURE FOR DENSITY CALCULATIONS
   3.00150E+02  1.01325E+05
  SALT(WT.%)  DEN_BR  KGSAT  IDGAS  COMPR_BR WMSALT WMH2O 
  3.2400E-03  1.2200E+03   1      0   0.0  5.8442468D-02  1.801528D-02
  VISC_BR   VISC_GAS
   2.1000E-03  8.933890E-06
  GAS DENSITY DATA: =0 COMPUTE; =1 INTERPOLATE
  -2
  GAS MOLE FRACTIONS FOR H2, CO2, CH4, N2, H2S, AND O2
   1.00000E+00  0.00000E+00  0.00000E+00  0.00000E+00  0.00000E+00  0.00000E+00
  GAS MOLECULAR WEIGHTS FOR H2, CO2, CH4, N2, H2S, AND O2
   2.01588E-03  4.40098E-02  1.60428E-02  2.80135E-02  3.40819E-02  3.19988E-02
  NUMBER OF GAS COMPONENTS ACTUALLY USED (NGAS) AND COMPONENT NUMBER OF GAS (N1GAS)
     1    1 
  IGASVAR (1=GENERATION USING REACTION SOURCE; 0= USING WELLS)
  0
  REACTANT/PRODUCT DENSITIES (Fe, Fe(OH)2, FeS, Bio)
   7.8700E+03   3.4000E+03   4.7000E+03   1.1000E+03
  REACTANT/PRODUCT DENSITIES (MgO, Mg(OH)2, Hydro, MgCO3, SALT)
   3.6000E+03   2.3700E+03   2.3000E+03   3.0500E+03   2.1800E+03
  WILL CREEP CLOSURE BE ACTIVATED?
   F
  WILL RADIONUCLIDE DECAY BE ACTIVATED?
   F
  WILL TRANSPORT BE CALCULATED?
   F
  WILL RADIOLYSIS BE CALCULATED?
   F
  BRAGFLO GAS COMPONENT TRANSPORT MODEL
   F 

