  BRAGFLO/PFLOTRAN Comparison Case 6a - 2-D cross section with gas generation over full domain
  FILE FLAGS...ASCII, BINARY, SUMMARY, RESTART OUT, RESTART INPUT
  T T T T F
  MODEL TYPE AND NUMBER OF GRID BLOCKS IN X, Y, AND Z
     2   11   21    1
  TSTART,   TMAX,      MAXSTEPS,       YRSEC,   SECYR 3.15569300000000E+07   3.16887700000000E-08
   0.00000E+00   3.1536+11  20000  3.153600E+07   3.170979198376460E-08
  DT_INIT,  DT_MIN,   DT_MAX,   DT_INCR, IAUTODT, TSWITCH
    8.6400E+00   8.6400E-04   1.73448+09   1.2500E+00  1     1.0000E+00
  TIME-STEP CHANGES: NUMBER OF CHANGES, TIME OF CHANGE, DELT USED
     0
  IPRTYPEASC IPRTYPEBIN IPRTYPERST UNITSI UNITSO
     2    2    2     'SI'     'SI'
  ASCII PRINTOUT CONTROLLED BY USER SPECIFIED TIMES
     27
  USER REQUESTED ASCII PRINTOUT TIMES
    0.000000E+00
    3.153600E+07
    6.307200E+07
    9.460800E+07
    1.261440E+08
    1.576800E+08
    1.892160E+08
    2.207520E+08
    2.522880E+08
    2.838240E+08
    3.153600E+08
    6.307200E+08
    9.460800E+08
    1.261440E+09
    1.576800E+09
    1.892160E+09
    2.207520E+09
    2.522880E+09
    2.838240E+09
    3.153600E+09
    1.103760E+10
    3.153600E+10
    9.460800E+10
    1.576800E+11
    2.207520E+11
    2.838240E+11
    3.153600E+11
  BINARY PRINTOUT CONTROLLED BY USER SPECIFIED TIMES
    27
  USER REQUESTED BINARY PRINTOUT TIMES
    0.000000E+00
    3.153600E+07
    6.307200E+07
    9.460800E+07
    1.261440E+08
    1.576800E+08
    1.892160E+08
    2.207520E+08
    2.522880E+08
    2.838240E+08
    3.153600E+08
    6.307200E+08
    9.460800E+08
    1.261440E+09
    1.576800E+09
    1.892160E+09
    2.207520E+09
    2.522880E+09
    2.838240E+09
    3.153600E+09
    1.103760E+10
    3.153600E+10
    9.460800E+10
    1.576800E+11
    2.207520E+11
    2.838240E+11
    3.153600E+11
  RESTART PRINTOUT CONTROLLED BY USER SPECIFIED TIMES
     1
  USER REQUESTED RESTART TIMES
   3.1536+11
  ASCII PRINT FLAGS
   1 1 1 1 1  1 1 1 1 1  1 1 1 1 1  1 1 1 1 1  1 1 1 1 1 
   1 1 1 1 1  1 1 1 1 1  1 1 1 1 1  1 1 1 1 1  1 1 1 1 1
   1 1 1 1 1  1 1 1 1 1  1 1 1 1 1  1 1 1 0 0  0 0 0 0 0
   0 0 0 0 0  0 0 0 0 0  0 0 0 0 0  0 0 0 0 0  0 0 0 0 0
   0 0 0 0 0  0 0 0 0 0  0 0 0 0 0
   0 0 0 0 0  0
   0 0
   0 0
   0 0
  BINARY PRINT FLAGS
   1 1 1 1 1  1 1 1 1 1  1 1 1 1 1  1 1 1 1 1  1 1 1 1 1
   1 1 1 1 1  1 1 1 1 1  1 1 1 1 1  1 1 1 1 1  1 1 1 1 1
   1 1 1 1 1  1 1 1 1 1  1 1 1 1 1  1 1 1 0 0  0 0 0 0 0
   0 0 0 0 0  0 0 0 0 0  0 0 0 0 0  0 0 0 0 0  0 0 0 0 0
   0 0 0 0 0  0 0 0 0 0  0 0 0 0 0
   0 0 0 0 0  0
   0 0
   0 0
   0 0
  HISTORY VARIABLE OUTPUT
     0
  MONITOR PARAMETER VALUES AT GRIDBLOCK(S)
  T
  NUMBER OF MONITOR BLOCKS
     1 
  MONITOR BLOCKS (I,J,K)
    1    11    1
  GRID DATA FLAGS: IDXFLAG, IDYFLAG, IDZFLAG, IDEPTHFLAG
     1    2    0    -2
  GRID DATA CARDS: GRID BLOCK DX'S
  0.5  10*1.0
  GRID DATA CARDS: GRID BLOCK DY'S
  21*1.0
  GRID DATA CARDS: GRID BLOCK DZ'S
  1.0
  GRID DATA CARDS: IORG, JORG, KORG, DEPTH, THETAX, THETAY, THETAZ
     1    1    1  0.  9.000000E+01 0.000000E+00 0.000000E+00
  WELL DATA
   0
  DIRICHLET CONDITIONS
  F     0
  GRID BLOCK BRINE PRESSURE INITIAL CONDITIONS
   11*0.40832E+07
   11*0.40734E+07
   11*0.40636E+07
   11*0.40538E+07
   11*0.40440E+07
   11*0.40342E+07
   11*0.40244E+07
   11*0.40147E+07
   11*0.40049E+07
   11*0.39951E+07
   11*0.39853E+07
   11*0.39755E+07
   11*0.39657E+07
   11*0.39559E+07
   11*0.39461E+07
   11*0.39363E+07
   11*0.39265E+07
   11*0.39167E+07
   11*0.39069E+07
   11*0.38971E+07
   11*0.38873E+07
  GRID BLOCK BRINE SATURATION INITIAL CONDITIONS
   11*0.99999E+00
   11*0.99999E+00
   11*0.99999E+00
   11*0.99999E+00
   11*0.99999E+00
   11*0.99999E+00
   11*0.99999E+00
   11*0.99999E+00
   11*0.99999E+00
   11*0.99999E+00
   11*0.99999E+00
   11*0.99998E+00
   11*0.99729E+00
   11*0.99192E+00
   11*0.98663E+00
   11*0.98143E+00
   11*0.97631E+00
   11*0.97127E+00
   11*0.96631E+00
   11*0.96143E+00
   11*0.95662E+00 
  GRID BLOCK FE CONCENTRATION INITIAL CONDITIONS
  231*1.120194E+02
  GRID BLOCK CH2O CONCENTRATION INITIAL CONDITIONS
  231*1.060889E+01
  GRID BLOCK MGO CONCENTRATION INITIAL CONDITIONS
  231*9.012416E+01
  DSATLIM, DPRESLIM, SATLIMIT
    2.0000E-01  -1.0000E+08   1.0000E-03
  SATNORM, PRESNORM: NOMINAL CHANGE DEPENDENT VARIABLE
    3.0000E-01   5.0000E+05
  MAXIMUM ALLOWABLE VARIABLE CHANGES: DSAT_MAX  DPRES_MAX
    1.0000E+00   1.0000E+07
  CONVERGENGE TEST FLAG: 0=OR/1=AND
     1
  EPS_SAT, EPS_PRES:  NORMAL CONVERGENCE CRITERIA
    3.0000E+00   1.0000E-02
  EPS_SAT, EPS_PRES:  RELAXED CONVERGENCE CRITERIA
    3.0000E+00   1.0000E-02
  FTOL_SAT   FTOL_PRES:  NORMAL RESIDUAL TOLERANCE
    1.0000E-02   1.0000E-02
  FTOL_SAT   FTOL_PRES:  RELAXED RESIDUAL TOLERANCE
    1.0000E-02   1.0000E-02
  GAS TRANSPORT TOLERANCES
    1.0000E-05   1.0000E-05   1.0000E-05   1.0000E-05
  LINEAR EQUATION SOLVER TYPE
  LU
  ITMAX, IRESETMAX, IJACINT, LSCALE, P_SCALE, LVARSWITCH
     8   40    1   T     1.0000E+07 F
  IUPRPFLAG, IUPMFLAG, DT_REDU, ITRAVE, IMFRAVE
     9    9   5.0000E-01    1    0
  IJACSWITCH, IJACMIN, IJACRESET, IUPRPLOOSE, IUPMFLOOSE
    41    1    5    9    9
  DHSAT_REL, DHPRES_REL: REL. CHANGE FOR JACOBIAN ELEMENT CALCS
    1.0000E-08   1.0000E-08
  DHSAT_MIN, DHPRES_MIN: MIN. CHANGE ALLOWED FOR JACOBIAN CALCS
    1.0000E-10   1.0000E-02
  NUMBER OF TIMES FOR SPECIFYING MATERIAL MAP
  1
  START TIME FOR MAP 1
  0.0
  MATERIAL TYPE GRID MAP
  231*1
   #     NAME
   1     WASTE
  NWST
  1
  MAT_WASTEI   MAT_WASTE
  1  1
  NDRZ
  0
  NMATRESET
  0
  BORE HOLE MATERIAL NUMBER
  0
  RESET TIME,  ICRESET
  0.0000E+00    0
  PORESETIC
  0.000000E+00
  SORESETIC
  0.000000E+00
  PRESDRZ
  0.000000E+00
  NBORERESET
  0
  # LAMBDA       SOR          SGR
  1 7.000000E-01 2.000000E-01 1.000000E-05
  # SBMIN        PBMIN        PCMAX          PCT_A       PCT_EXP     KRP KPC KTP
  1 1.000000E+00 1.013250E+05 1.000000E+08  8.300000E+04  0.000000E+00  4  2  0
  # PERMX        PERMY        PERMZ        POROSITY     COMPRES
  1 1.000000E-17 1.000000E-17 1.000000E-17  4.500000E-01  1.000000E-08
  TOL AND SOCEFFMIN FOR PERMEABILITY MODELS 11 & 12
  1.000000E-02  1.000000E-03
  NMATSP, FOR SMOOTH PERMEABILITY TRANSITION MODEL
  0
  FRACTURE MODEL DATA TO FOLLOW :T OR F
  F
  KLINKENBERG EFFECT TO BE USED? True or False
  F
  GRAVITY CONSTANT (GSTD) AND GAS CONSTANT (R)
   9.80665E+00  8.31451E+00
  REFERENCE TEMPERATURE AND PRESSURE FOR DENSITY CALCULATIONS
   3.00150E+02  1.01325E+05
  SALT(WT.%)  DEN_BR  KGSAT  IDGAS,  COMPR_BR,  WMSALT, WMH2O
  3.2400E+01 1.2200E+03    1    0    3.1000E-10 5.8442E-02 1.8015E-02
  VISC_BR   VISC_GAS
   2.10000E-03  8.93389E-06
  GAS DENSITY DATA: =0 OR -2 COMPUTE USING RKS OR IDEAL GAS; =1 OR -1 INTERPOLATE USING RKS OR IDEAL GAS
  1
  GAS MOLE FRACTIONS FOR H2, CO2, CH4, N2, H2S, AND O2
   1.00000E+00  0.00000E+00  0.00000E+00  0.00000E+00  0.00000E+00  0.00000E+00
  GAS MOLECULAR WEIGHTS FOR H2, CO2, CH4, N2, H2S, AND O2
   2.01588E-03  4.40098E-02  1.60428E-02  2.80135E-02  3.40819E-02  3.19988E-02
  NUMBER OF GAS COMPONENTS ACTUALLY USED (NGAS) AND COMPONENT NUMBER OF GAS (N1GAS)
     1    1
  RKS SPECIFIED: TC FOR H2, CO2, CH4, N2, H2S, AND O2
   4.36000E+01  3.04150E+02  1.90630E+02  1.26150E+02  3.73550E+02  1.54770E+02
  RKS SPECIFIED: PC FOR H2, CO2, CH4, N2, H2S, AND O2
   2.04700E+06  7.37600E+06  4.61700E+06  3.39400E+06  9.00700E+06  5.08000E+06
  RKS SPECIFIED: ACEN FOR H2, CO2, CH4, N2, H2S, AND O2
   0.00000E+00  2.31000E-01  1.00000E-02  4.50000E-02  1.00000E-01  1.90000E-02
  RKS SPECIFIED: SPECIAL PROPERTIES FOR H2- TCH2, PCH2,AND WMH2
   4.36000E+01  2.04700E+06  2.01588E-03
  RKS SPECIFIED: CONSTANTS OMEGAA AND OMEGAB
   4.27470E-01  8.66400E-02
  RKS SPECIFIED: BINARY INTERACTION PARAMETERS, AKIJ(1-MGAS, 1-MGAS)
  BINARY INTERACTION PARAMETER FOR H2
   0.00000E+00 -3.42600E-01 -2.22000E-02  9.78000E-02  0.00000E+00  0.00000E+00
  BINARY INTERACTION PARAMETER FOR CO2
  -3.42600E-01  0.00000E+00  9.33000E-02 -3.15000E-02  9.89000E-02  0.00000E+00
  BINARY INTERACTION PARAMETER FOR CH4
  -2.22000E-02  9.33000E-02  0.00000E+00  2.78000E-02  8.50000E-02  0.00000E+00
  BINARY INTERACTION PARAMETER FOR N2
   9.78000E-02 -3.15000E-02  2.78000E-02  0.00000E+00  1.69600E-01 -7.80000E-03
  BINARY INTERACTION PARAMETER FOR H2S
   0.00000E+00  9.89000E-02  8.50000E-02  1.69600E-01  0.00000E+00  0.00000E+00
  BINARY INTERACTION PARAMETER FOR O2
   0.00000E+00  0.00000E+00  0.00000E+00 -7.80000E-03  0.00000E+00  0.00000E+00
  IGASVAR (2= REACTION PATH,  1= USING AVG. STOICH. , 0= USING WELLS)
  1
  RATE CONSTANTS: CORROSION (RKCOR) AND BIODEGRADATION (RKBIO), INTRINSIC RATES
   1.0541E-08   1.8364E-09   F
  HUMIDITY FACTORS: HUMFAC_COR, HUMFAC_BIO
   0.0000E+00   1.4203E-01
  RATE CONSTANTS: BRUCITEI, BRUCITEH, HYMAGCON
   4.8753E-06   1.7208E-06   6.4760E-10
  RATE COEFFICIENTS FOR EACH WASTE AREA: GAS AND CO2
   4.8010E-01   1.0000E+00
  CHEMISTRY CUTOFF SATURATION:  SOCMIN
   1.5000E-02
  REACTANT/PRODUCT MOLECULAR WEIGHTS (H2, H2O, Fe, [C6-H10-O5]/6)
  2.015880E-03  1.801528E-02  5.584700E-02  2.702300E-02
  REACTANT/PRODUCT MOLECULAR WEIGHT (Fe(OH)2, FeS, MgO, Mg(OH)2, Hydro, MgCO3)
  8.986000E-02  8.791100E-02  4.030400E-02  5.832000E-02  4.676360E-01  8.431400E-02
  S_H2,S_H2O,S_Fe,S_Bio,S_FeOH2,S_FeS,S_MgO,S_MgOH2,S_Hydro,S_MgCO3
  1.0000E+00 -2.0000E+00 -1.0000E+00  0.0000E+00  1.0000E+00  0.0000E+00  0.0000E+00  0.0000E+00  0.0000E+00  0.0000E+00
  0.0000E+00  9.1293E-01  0.0000E+00 -1.0000E+00  0.0000E+00  0.0000E+00  0.0000E+00  0.0000E+00  0.0000E+00  0.0000E+00
 -1.0000E+00  2.0000E+00  0.0000E+00  0.0000E+00 -1.0000E+00  1.0000E+00  0.0000E+00  0.0000E+00  0.0000E+00  0.0000E+00
  0.0000E+00  0.0000E+00 -1.0000E+00  0.0000E+00  0.0000E+00  1.0000E+00  0.0000E+00  0.0000E+00  0.0000E+00  0.0000E+00
  0.0000E+00 -1.0000E+00  0.0000E+00  0.0000E+00  0.0000E+00  0.0000E+00 -1.0000E+00  1.0000E+00  0.0000E+00  0.0000E+00
  0.0000E+00  0.0000E+00  0.0000E+00  0.0000E+00  0.0000E+00  0.0000E+00  0.0000E+00 -1.2500E+00  2.5000E-01  0.0000E+00
  0.0000E+00  0.0000E+00  0.0000E+00  0.0000E+00  0.0000E+00  0.0000E+00 -1.0000E+00  0.0000E+00  0.0000E+00  1.0000E+00
  0.0000E+00  4.0000E+00  0.0000E+00  0.0000E+00  0.0000E+00  0.0000E+00  0.0000E+00  1.0000E+00 -1.0000E+00  4.0000E+00
  REACTANT/PRODUCT DENSITIES (Fe, Fe(OH)2, FeS, Bio)
   7.8700E+03   3.4000E+03   4.7000E+03   1.1000E+03
  REACTANT/PRODUCT DENSITIES (MgO, Mg(OH)2, Hydro, MgCO3, SALT)
   3.6000E+03   2.3700E+03   2.3000E+03   3.0500E+03   2.1800E+03
  WICKING SATURATION, HUMID RATE SMOOTHING, CONCENTRATION SMOOTHING, ALPHARXN
   3.2225E-01   T   T  -1.0000E+03
  CREEP CLOSURE? IF TRUE AN EXTERNAL FILE OF CLOSURE DATA IS ALSO EXPECTED
   F
  WILL RADIONUCLIDE DECAY BE CALCULATED? T or F
  F
  WILL TRANSPORT BE CALCULATED? T or F
  F
  WILL RADIOLYSIS BE CALCULATED? T or F
  F
  BRAGFLO GAS COMPONENT TRANSPORT MODEL
  F
